Week 7: Data Wrangling – tidyr and dplyr
…
relig_income %>% pivot_longer(!religion, names_to = "income", values_to = "count")

## # A tibble: 180 x 3
##    religion income             count
##    <chr>    <chr>              <dbl>
##  1 Agnostic <$10k                 27
##  2 Agnostic $10-20k               34
##  3 Agnostic $20-30k               60
##  4 Agnostic $30-40k               81
##  5 Agnostic $40-50k               76
##  6 Agnostic $50-75k              137
##  7 Agnostic $75-100k             122
##  8 Agnostic $100-150k            109
##  9 Agnostic >150k                 84
## 10 Agnostic Don't know/refused    96
## # ... with 170 more rows

relig_income %>% gather(key = income, value = count, -religion)

## # A tibble: 180 x 3
##    religion                income count
##    <chr>                   <chr>  <dbl>
##  1 Agnostic                <$10k     27
##  2 Atheist                 <$10k     12
##  3 Buddhist                <$10k     27
##  4 Catholic                <$10k    418
##  5 Don’t know/refused      <$10k     15
##  6 Evangelical Prot        <$10k    575
##  7 Hindu                   <$10k      1
##  8 Historically Black Prot <$10k    228
##  9 Jehovah's Witness       <$10k     20
## 10 Jewish                  <$10k     19
## # ... with 170 more rows

fish_encounters

## # A tibble: 114 x 3
##    fish  station  seen
##    <fct> <fct>   <int>
##  1 4842  Release     1
##  2 4842  I80_1       1
##  3 4842  Lisbon      1
##  4 4842  Rstr        1
##  5 4842  Base_TD     1
##  6 4842  BCE         1
##  7 4842  BCW         1
##  8 4842  BCE2        1
##  9 4842  BCW2        1
## 10 4842  MAE         1
## # ... with 104 more rows
…
